…
Examples
--------

### Store and Convert

We will be using `ncaa2005`, data from `comperes` package. It is an example competition results (hereafter - results) of an isolated group of Atlantic Coast Conference teams provided in book ["Who's \#1"](https://www.amazon.com/Whos-1-Science-Rating-Ranking/dp/069116231X) by Langville and Meyer. It looks like this:

``` r
library(comperes)
ncaa2005
#> # A longcr object:
#> # A tibble: 20 x 3
#>    game player score
#>   <int> <chr>  <int>
#> 1     1 Duke       7
#> 2     1 Miami     52
#> 3     2 Duke      21
#> 4     2 UNC       24
#> 5     3 Duke       7
#> 6     3 UVA       38
#> # ... with 14 more rows
```

This is an object of class `longcr` which describes results in long form (*each row represents the score of particular player in particular game*). Because in this competition a game always consists from two players, more natural way to look at `ncaa2005` is in wide format:

``` r
as_widecr(ncaa2005)
#> # A widecr object:
#> # A tibble: 10 x 5
#>    game player1 score1 player2 score2
#>   <int> <chr>    <int> <chr>    <int>
#> 1     1 Duke         7 Miami       52
#> 2     2 Duke        21 UNC         24
#> 3     3 Duke         7 UVA         38
#> 4     4 Duke         0 VT          45
#> 5     5 Miami       34 UNC         16
#> 6     6 Miami       25 UVA         17
#> # ... with 4 more rows
```
…
# Using list of common summary functions
library(rlang)
ncaa2005 %>%
  summarise_game(!!!summary_funs[c("sum_score", "num_players")])
#> # A tibble: 10 x 3
#>    game sum_score num_players
#>   <int>     <int>       <int>
#> 1     1        59           2
#> 2     2        45           2
#> 3     3        45           2
#> 4     4        45           2
#> 5     5        50           2
#> 6     6        42           2
#> # ... with 4 more rows
```
…
To modify scores based on the rest of results one can use `join_*_summary()` functions:

``` r
suppressPackageStartupMessages(library(dplyr))
ncaa2005_mod <- ncaa2005 %>%
  join_player_summary(player_mean_score = mean(score)) %>%
  join_game_summary(game_mean_score = mean(score)) %>%
  mutate(score = player_mean_score - game_mean_score)

ncaa2005_mod
#> # A longcr object:
#> # A tibble: 20 x 5
#>    game player score player_mean_score game_mean_score
#>   <int> <chr>  <dbl>             <dbl>           <dbl>
#> 1     1 Duke   -20.8              8.75            29.5
#> 2     1 Miami    5               34.5             29.5
#> 3     2 Duke   -13.8              8.75            22.5
#> 4     2 UNC    -10               12.5             22.5
#> 5     3 Duke   -13.8              8.75            22.5
#> 6     3 UVA     -4               18.5             22.5
#> # ... with 14 more rows
…
This code modifies `score` to be average player score minus average game score. Negative values indicate poor game performance.

### Head-to-Head

Computation of Head-to-Head performance is done with `h2h_long()` (output is a tibble; allows multiple Head-to-Head values per pair of players) or `h2h_mat()` (output is a matrix; only one value per pair of players).

Head-to-Head functions should be supplied in `dplyr` grammar but for players' matchups: direct confrontation between **ordered** pairs of players (including playing with themselves) stored in wide format:

``` r
ncaa2005 %>% get_matchups()
#> # A widecr object:
#> # A tibble: 40 x 5
#>    game player1 score1 player2 score2
#>   <int> <chr>    <int> <chr>    <int>
#> 1     1 Duke         7 Duke         7
#> 2     1 Duke         7 Miami       52
#> 3     1 Miami       52 Duke         7
#> 4     1 Miami       52 Miami       52
#> 5     2 Duke        21 Duke        21
#> 6     2 Duke        21 UNC         24
#> # ... with 34 more rows
```

Typical Head-to-Head computation is done like this:

``` r
ncaa2005 %>%
  h2h_long(
    mean_score_diff = mean(score1 - score2),
    num_wins = sum(score1 > score2)
  )
#> # A long format of Head-to-Head values:
#> # A tibble: 25 x 4
#>   player1 player2 mean_score_diff num_wins
#>   <chr>   <chr>             <dbl>    <int>
#> 1 Duke    Duke                  0        0
#> 2 Duke    Miami               -45        0
#> 3 Duke    UNC                  -3        0
#> 4 Duke    UVA                 -31        0
#> 5 Duke    VT                  -45        0
#> 6 Miami   Duke                 45        1
#> # ... with 19 more rows
…
ncaa2005 %>% h2h_long(!!!h2h_funs)
#> # A long format of Head-to-Head values:
#> # A tibble: 25 x 11
#>   player1 player2 mean_score_diff mean_score_diff… mean_score
#>   <chr>   <chr>             <dbl>            <dbl>      <dbl>
#> 1 Duke    Duke                  0                0       8.75
#> 2 Duke    Miami               -45                0       7   
#> 3 Duke    UNC                  -3                0      21   
#> 4 Duke    UVA                 -31                0       7   
#> 5 Duke    VT                  -45                0       0   
#> 6 Miami   Duke                 45               45      52   
#> # ... with 19 more rows, and 6 more variables: sum_score_diff <int>,
#> #   sum_score_diff_pos <dbl>, sum_score <int>, num_wins <dbl>,
#> #   num_wins2 <dbl>, num <int>
```
…
