Operations with competition results
…
In comperes this format is supported with longcr S3 class which inherits from tibble. Data in this format should have at least three columns with the following names:

game - game identifier;

player - player identifier;

score - score of particular player in particular game.

Extra columns are allowed. Note that if longcr object is converted to widecr (wide format which is described next) they will be dropped. So it is better to store extra information about game-player pair as list-column score which will stay untouched.

As example of longcr object one can use ncaa2005 which is a built-in dataset in comperes package:

## # A longcr object:
## # A tibble: 20 x 3
##    game player score
##   <int>  <chr> <int>
## 1     1   Duke     7
## 2     1  Miami    52
## 3     2   Duke    21
## 4     2    UNC    24
## 5     3   Duke     7
## 6     3    UVA    38
## # ... with 14 more rows
…
to_longcr has argument repair. If TRUE then the result is ensured to have proper structure: there will be columns game, player, score and there will be no duplicated game-player pairs. If they were not detected in original data then they are created as new columns with NAs and appropriate message is given. In case of imperfect matching of column names there also will be a message. For more details see ?to_longcr.

Wide CR format

Wide format is preferred if all games consist from the constant number of players. Results should be in “data.frame-like” format with observational unit (row) being one particular game. Data should be organized in pairs of columns player-score. Identifier of a pair should go after respective keyword and consist only from digits. For example: player1, score1, player2, score2. Order doesn’t matter. Extra columns are allowed.

To account for R standard string ordering, identifiers of pairs should be formatted with possible leading zeros. For example: player01, score01, …, player10, score10.

Column game for game identifier is optional. If present it will be used in conversion to longcr format via to_longcr.

Here is the widecr version of ncaa2005 dataset:

## # A widecr object:
## # A tibble: 10 x 5
##    game player1 score1 player2 score2
##   <int>   <chr>  <int>   <chr>  <int>
## 1     1    Duke      7   Miami     52
## 2     2    Duke     21     UNC     24
## 3     3    Duke      7     UVA     38
## # ... with 7 more rows
…
Add item summary

In order to modify scores in CR so that they fully characterize player’s performance in particular game one might need to use item summaries. Instead of manually computing with get_item_summary and applying left_join to result, comperes provides add_item_summary. For example suppose the goal of players in ncaa2005 was not to gain points more than opponent but to gain as close scores to opponent as possible. In this case score doesn’t fully describe the player’s performance. Instead the distance from the mean score can describe it:

ncaa2005 %>%
  add_item_summary(item = "game",
                   summary_fun = summary_mean_sd_score) %>%
  mutate(score = abs(score - meanScore)) %>%
  print(n = 6)

## # A tibble: 20 x 5
##    game player score meanScore  sdScore
##   <int>  <chr> <dbl>     <dbl>    <dbl>
## 1     1   Duke  22.5      29.5 31.81981
## 2     1  Miami  22.5      29.5 31.81981
## 3     2   Duke   1.5      22.5  2.12132
## 4     2    UNC   1.5      22.5  2.12132
## 5     3   Duke  15.5      22.5 21.92031
## 6     3    UVA  15.5      22.5 21.92031
## # ... with 14 more rows
…
