Common Head-to-Head functions — h2h_funs • comperes
…
Note that it is generally better to subset h2h_funs using names
rather than indices because the order of elements might change in future
versions.

    See also

    Long format of Head-to-Head values.
    Matrix format of Head-to-Head values.

    Examples

ncaa2005 %>% h2h_long(!!! h2h_funs)
#> # A long format of Head-to-Head values:
#> # A tibble: 25 x 11
#>    player1 player2 mean_score_diff mean_score_diff_p… mean_score sum_score_diff
#>    <chr>   <chr>             <dbl>              <dbl>      <dbl>          <int>
#>  1 Duke    Duke                 0.                 0.       8.75              0
#>  2 Duke    Miami              -45.                 0.       7.00            -45
#>  3 Duke    UNC                 -3.                 0.      21.0              -3
#>  4 Duke    UVA                -31.                 0.       7.00            -31
#>  5 Duke    VT                 -45.                 0.       0.              -45
#>  6 Miami   Duke                45.                45.      52.0              45
#>  7 Miami   Miami                0.                 0.      34.5               0
#>  8 Miami   UNC                 18.                18.      34.0              18
#>  9 Miami   UVA                  8.                 8.      25.0               8
#> 10 Miami   VT                  20.                20.      27.0              20
#> # ... with 15 more rows, and 5 more variables: sum_score_diff_pos <dbl>,
#> #   sum_score <int>, num_wins <dbl>, num_wins2 <dbl>, num <int>
…
