Compute long format of Head-to-Head values — h2h_long • comperes
…
    See also

    Matrix format of Head-to-Head values.
    Common Head-to-Head functions.

    Examples

ncaa2005 %>%
  h2h_long(
    mean_score = mean(score1),
    mean_abs_score = mean(abs(score1 - score2))
  )
#> # A long format of Head-to-Head values:
#> # A tibble: 25 x 4
#>    player1 player2 mean_score mean_abs_score
#>    <chr>   <chr>        <dbl>          <dbl>
#>  1 Duke    Duke          8.75             0.
#>  2 Duke    Miami         7.00            45.
#>  3 Duke    UNC          21.0              3.
#>  4 Duke    UVA           7.00            31.
#>  5 Duke    VT            0.              45.
#>  6 Miami   Duke         52.0             45.
#>  7 Miami   Miami        34.5              0.
#>  8 Miami   UNC          34.0             18.
#>  9 Miami   UVA          25.0              8.
#> 10 Miami   VT           27.0             20.
#> # ... with 15 more rows

ncaa2005[-(1:2), ] %>%
  h2h_long(
    mean_score = mean(score1),
    fill = list(mean_score = 0)
  )
#> # A long format of Head-to-Head values:
#> # A tibble: 25 x 3
#>    player1 player2 mean_score
#>    <chr>   <chr>        <dbl>
#>  1 Duke    Duke          9.33
#>  2 Duke    Miami         0.  
#>  3 Duke    UNC          21.0 
#>  4 Duke    UVA           7.00
#>  5 Duke    VT            0.  
#>  6 Miami   Duke          0.  
#>  7 Miami   Miami        28.7 
#>  8 Miami   UNC          34.0 
#>  9 Miami   UVA          25.0 
#> 10 Miami   VT           27.0 
#> # ... with 15 more rows
…
